%YAML 1.1
%TAG !u! tag:unity3d.com,2011:
--- !u!74 &7400000
AnimationClip:
  m_ObjectHideFlags: 0
  m_CorrespondingSourceObject: {fileID: 0}
  m_PrefabInstance: {fileID: 0}
  m_PrefabAsset: {fileID: 0}
  m_Name: jump
  serializedVersion: 6
  m_Legacy: 0
  m_Compressed: 0
  m_UseHighQualityCurve: 1
  m_RotationCurves: []
  m_CompressedRotationCurves: []
  m_EulerCurves: []
  m_PositionCurves:
  - curve:
      serializedVersion: 2
      m_Curve:
      - serializedVersion: 3
        time: 0
        value: {x: -172.35, y: 89.225, z: 0}
        inSlope: {x: 0, y: 0, z: 0}
        outSlope: {x: 0, y: 0, z: 0}
        tangentMode: 0
        weightedMode: 0
        inWeight: {x: 0.33333334, y: 0.33333334, z: 0.33333334}
        outWeight: {x: 0.33333334, y: 0.33333334, z: 0.33333334}
      - serializedVersion: 3
        time: 0.45
        value: {x: -169.7, y: 93.25, z: 0}
        inSlope: {x: 8.400009, y: 0, z: 0}
        outSlope: {x: 8.400009, y: 0, z: 0}
        tangentMode: 0
        weightedMode: 0
        inWeight: {x: 0.33333334, y: 0.33333334, z: 0.33333334}
        outWeight: {x: 0.33333334, y: 0.33333334, z: 0.33333334}
      - serializedVersion: 3
        time: 1
        value: {x: -163.95, y: 89.375, z: 0}
        inSlope: {x: 0, y: 0, z: 0}
        outSlope: {x: 0, y: 0, z: 0}
        tangentMode: 0
        weightedMode: 0
        inWeight: {x: 0.33333334, y: 0.33333334, z: 0.33333334}
        outWeight: {x: 0.33333334, y: 0.33333334, z: 0.33333334}
      m_PreInfinity: 2
      m_PostInfinity: 2
      m_RotationOrder: 4
    path: 
  m_ScaleCurves: []
  m_FloatCurves: []
  m_PPtrCurves:
  - curve:
    - time: 0
      value: {fileID: 21300000, guid: e8b7918dcab2b3c068bf3b3cb40725bd, type: 3}
    - time: 0.033333335
      value: {fileID: 21300000, guid: 4a5a488c351973d18b032014b30ca990, type: 3}
    - time: 0.06666667
      value: {fileID: 21300000, guid: 92deed4e8e542c5489c3315195db75ac, type: 3}
    - time: 0.1
      value: {fileID: 21300000, guid: f96b3f9dc45494e81ad50320bc59af57, type: 3}
    - time: 0.21666667
      value: {fileID: 21300000, guid: 5a299f133f2de55fca443057a03d6f4d, type: 3}
    - time: 0.31666666
      value: {fileID: 21300000, guid: b8f17692e199daa238e94e546fb78e72, type: 3}
    - time: 0.35
      value: {fileID: 21300000, guid: ad42e36582d694b2b88726ba018f110d, type: 3}
    - time: 0.41666666
      value: {fileID: 21300000, guid: c3e0ea77ccd0ee71a9b82ffac473c70f, type: 3}
    - time: 0.55
      value: {fileID: 21300000, guid: d6d64bd64d6b622ebba6b89ec4fcf7f4, type: 3}
    - time: 0.5833333
      value: {fileID: 21300000, guid: bcc1e61842a892658ace544e38a51f55, type: 3}
    - time: 0.65
      value: {fileID: 21300000, guid: 2bc9884adaa5aeeb4b3c305755aa9faa, type: 3}
    - time: 0.68333334
      value: {fileID: 21300000, guid: 4bed47a456ad7a6a6a7b6ddcb070a1aa, type: 3}
    - time: 0.78333336
      value: {fileID: 21300000, guid: 90200352fc830b02eabdb72d2537d199, type: 3}
    - time: 0.9
      value: {fileID: 21300000, guid: 23a089c3e2b3f4d928323e19fc55613e, type: 3}
    - time: 0.93333334
      value: {fileID: 21300000, guid: 50a132f1484c15bff911023791a89c22, type: 3}
    - time: 0.96666664
      value: {fileID: 21300000, guid: 77f4d3520badd30518592e326ea451d4, type: 3}
    - time: 1
      value: {fileID: 21300000, guid: 4c2fc928d705acc38b681bb025fb41ce, type: 3}
    attribute: m_Sprite
    path: 
    classID: 212
    script: {fileID: 0}
  m_SampleRate: 60
  m_WrapMode: 0
  m_Bounds:
    m_Center: {x: 0, y: 0, z: 0}
    m_Extent: {x: 0, y: 0, z: 0}
  m_ClipBindingConstant:
    genericBindings:
    - serializedVersion: 2
      path: 0
      attribute: 1
      script: {fileID: 0}
      typeID: 4
      customType: 0
      isPPtrCurve: 0
    - serializedVersion: 2
      path: 0
      attribute: 0
      script: {fileID: 0}
      typeID: 212
      customType: 23
      isPPtrCurve: 1
    pptrCurveMapping:
    - {fileID: 21300000, guid: e8b7918dcab2b3c068bf3b3cb40725bd, type: 3}
    - {fileID: 21300000, guid: 4a5a488c351973d18b032014b30ca990, type: 3}
    - {fileID: 21300000, guid: 92deed4e8e542c5489c3315195db75ac, type: 3}
    - {fileID: 21300000, guid: f96b3f9dc45494e81ad50320bc59af57, type: 3}
    - {fileID: 21300000, guid: 5a299f133f2de55fca443057a03d6f4d, type: 3}
    - {fileID: 21300000, guid: b8f17692e199daa238e94e546fb78e72, type: 3}
    - {fileID: 21300000, guid: ad42e36582d694b2b88726ba018f110d, type: 3}
    - {fileID: 21300000, guid: c3e0ea77ccd0ee71a9b82ffac473c70f, type: 3}
    - {fileID: 21300000, guid: d6d64bd64d6b622ebba6b89ec4fcf7f4, type: 3}
    - {fileID: 21300000, guid: bcc1e61842a892658ace544e38a51f55, type: 3}
    - {fileID: 21300000, guid: 2bc9884adaa5aeeb4b3c305755aa9faa, type: 3}
    - {fileID: 21300000, guid: 4bed47a456ad7a6a6a7b6ddcb070a1aa, type: 3}
    - {fileID: 21300000, guid: 90200352fc830b02eabdb72d2537d199, type: 3}
    - {fileID: 21300000, guid: 23a089c3e2b3f4d928323e19fc55613e, type: 3}
    - {fileID: 21300000, guid: 50a132f1484c15bff911023791a89c22, type: 3}
    - {fileID: 21300000, guid: 77f4d3520badd30518592e326ea451d4, type: 3}
    - {fileID: 21300000, guid: 4c2fc928d705acc38b681bb025fb41ce, type: 3}
  m_AnimationClipSettings:
    serializedVersion: 2
    m_AdditiveReferencePoseClip: {fileID: 0}
    m_AdditiveReferencePoseTime: 0
    m_StartTime: 0
    m_StopTime: 1.0166667
    m_OrientationOffsetY: 0
    m_Level: 0
    m_CycleOffset: 0
    m_HasAdditiveReferencePose: 0
    m_LoopTime: 1
    m_LoopBlend: 0
    m_LoopBlendOrientation: 0
    m_LoopBlendPositionY: 0
    m_LoopBlendPositionXZ: 0
    m_KeepOriginalOrientation: 0
    m_KeepOriginalPositionY: 1
    m_KeepOriginalPositionXZ: 0
    m_HeightFromFeet: 0
    m_Mirror: 0
  m_EditorCurves:
  - curve:
      serializedVersion: 2
      m_Curve:
      - serializedVersion: 3
        time: 0
        value: -172.35
        inSlope: 0
        outSlope: 0
        tangentMode: 136
        weightedMode: 0
        inWeight: 0.33333334
        outWeight: 0.33333334
      - serializedVersion: 3
        time: 0.45
        value: -169.7
        inSlope: 8.400009
        outSlope: 8.400009
        tangentMode: 136
        weightedMode: 0
        inWeight: 0.33333334
        outWeight: 0.33333334
      - serializedVersion: 3
        time: 1
        value: -163.95
        inSlope: 0
        outSlope: 0
        tangentMode: 136
        weightedMode: 0
        inWeight: 0.33333334
        outWeight: 0.33333334
      m_PreInfinity: 2
      m_PostInfinity: 2
      m_RotationOrder: 4
    attribute: m_LocalPosition.x
    path: 
    classID: 4
    script: {fileID: 0}
  - curve:
      serializedVersion: 2
      m_Curve:
      - serializedVersion: 3
        time: 0
        value: 89.225
        inSlope: 0
        outSlope: 0
        tangentMode: 136
        weightedMode: 0
        inWeight: 0.33333334
        outWeight: 0.33333334
      - serializedVersion: 3
        time: 0.45
        value: 93.25
        inSlope: 0
        outSlope: 0
        tangentMode: 136
        weightedMode: 0
        inWeight: 0.33333334
        outWeight: 0.33333334
      - serializedVersion: 3
        time: 1
        value: 89.375
        inSlope: 0
        outSlope: 0
        tangentMode: 136
        weightedMode: 0
        inWeight: 0.33333334
        outWeight: 0.33333334
      m_PreInfinity: 2
      m_PostInfinity: 2
      m_RotationOrder: 4
    attribute: m_LocalPosition.y
    path: 
    classID: 4
    script: {fileID: 0}
  - curve:
      serializedVersion: 2
      m_Curve:
      - serializedVersion: 3
        time: 0
        value: 0
        inSlope: 0
        outSlope: 0
        tangentMode: 136
        weightedMode: 0
        inWeight: 0.33333334
        outWeight: 0.33333334
      - serializedVersion: 3
        time: 0.45
        value: 0
        inSlope: 0
        outSlope: 0
        tangentMode: 136
        weightedMode: 0
        inWeight: 0.33333334
        outWeight: 0.33333334
      - serializedVersion: 3
        time: 1
        value: 0
        inSlope: 0
        outSlope: 0
        tangentMode: 136
        weightedMode: 0
        inWeight: 0.33333334
        outWeight: 0.33333334
      m_PreInfinity: 2
      m_PostInfinity: 2
      m_RotationOrder: 4
    attribute: m_LocalPosition.z
    path: 
    classID: 4
    script: {fileID: 0}
  m_EulerEditorCurves: []
  m_HasGenericRootTransform: 1
  m_HasMotionFloatCurves: 0
  m_Events: []
