%YAML 1.1
%TAG !u! tag:unity3d.com,2011:
--- !u!1 &1140560296677090933
GameObject:
  m_ObjectHideFlags: 0
  m_CorrespondingSourceObject: {fileID: 0}
  m_PrefabInstance: {fileID: 0}
  m_PrefabAsset: {fileID: 0}
  serializedVersion: 6
  m_Component:
  - component: {fileID: 3542076489558264980}
  - component: {fileID: 5005409686098725221}
  - component: {fileID: 4651523029226541371}
  m_Layer: 0
  m_Name: s
  m_TagString: Untagged
  m_Icon: {fileID: 0}
  m_NavMeshLayer: 0
  m_StaticEditorFlags: 0
  m_IsActive: 1
--- !u!4 &3542076489558264980
Transform:
  m_ObjectHideFlags: 0
  m_CorrespondingSourceObject: {fileID: 0}
  m_PrefabInstance: {fileID: 0}
  m_PrefabAsset: {fileID: 0}
  m_GameObject: {fileID: 1140560296677090933}
  m_LocalRotation: {x: 0, y: 0, z: 0, w: 1}
  m_LocalPosition: {x: -0.009, y: -0.266, z: 0}
  m_LocalScale: {x: 2.7331877, y: 3.2794514, z: 1}
  m_Children: []
  m_Father: {fileID: 0}
  m_RootOrder: 0
  m_LocalEulerAnglesHint: {x: 0, y: 0, z: 0}
--- !u!212 &5005409686098725221
SpriteRenderer:
  m_ObjectHideFlags: 0
  m_CorrespondingSourceObject: {fileID: 0}
  m_PrefabInstance: {fileID: 0}
  m_PrefabAsset: {fileID: 0}
  m_GameObject: {fileID: 1140560296677090933}
  m_Enabled: 0
  m_CastShadows: 0
  m_ReceiveShadows: 0
  m_DynamicOccludee: 1
  m_MotionVectors: 1
  m_LightProbeUsage: 1
  m_ReflectionProbeUsage: 1
  m_RayTracingMode: 0
  m_RayTraceProcedural: 0
  m_RenderingLayerMask: 1
  m_RendererPriority: 0
  m_Materials:
  - {fileID: 10754, guid: 0000000000000000f000000000000000, type: 0}
  m_StaticBatchInfo:
    firstSubMesh: 0
    subMeshCount: 0
  m_StaticBatchRoot: {fileID: 0}
  m_ProbeAnchor: {fileID: 0}
  m_LightProbeVolumeOverride: {fileID: 0}
  m_ScaleInLightmap: 1
  m_ReceiveGI: 1
  m_PreserveUVs: 0
  m_IgnoreNormalsForChartDetection: 0
  m_ImportantGI: 0
  m_StitchLightmapSeams: 1
  m_SelectedEditorRenderState: 0
  m_MinimumChartSize: 4
  m_AutoUVMaxDistance: 0.5
  m_AutoUVMaxAngle: 89
  m_LightmapParameters: {fileID: 0}
  m_SortingLayerID: 0
  m_SortingLayer: 0
  m_SortingOrder: 0
  m_Sprite: {fileID: 21300000, guid: 8c053a189f38d1d6dadd340690ae20a2, type: 3}
  m_Color: {r: 1, g: 1, b: 1, a: 1}
  m_FlipX: 0
  m_FlipY: 0
  m_DrawMode: 0
  m_Size: {x: 5, y: 3.859375}
  m_AdaptiveModeThreshold: 0.5
  m_SpriteTileMode: 0
  m_WasSpriteAssigned: 1
  m_MaskInteraction: 0
  m_SpriteSortPoint: 0
--- !u!60 &4651523029226541371
PolygonCollider2D:
  m_ObjectHideFlags: 0
  m_CorrespondingSourceObject: {fileID: 0}
  m_PrefabInstance: {fileID: 0}
  m_PrefabAsset: {fileID: 0}
  m_GameObject: {fileID: 1140560296677090933}
  m_Enabled: 1
  m_Density: 1
  m_Material: {fileID: 0}
  m_IsTrigger: 0
  m_UsedByEffector: 0
  m_UsedByComposite: 1
  m_Offset: {x: 0, y: 0}
  m_SpriteTilingProperty:
    border: {x: 1.328125, y: 1.0859375, z: 1.296875, w: 0.8671875}
    pivot: {x: 0.5, y: 0.5}
    oldSize: {x: 5, y: 3.859375}
    newSize: {x: 5, y: 3.859375}
    adaptiveTilingThreshold: 0.5
    drawMode: 0
    adaptiveTiling: 0
  m_AutoTiling: 0
  m_Points:
    m_Paths:
    - - {x: 0.4765625, y: -0.765625}
      - {x: 0.59375, y: -0.7265625}
      - {x: 0.6875, y: -0.65625}
      - {x: 0.6796875, y: -0.53125}
      - {x: 0.8046875, y: -0.4375}
      - {x: 0.890625, y: -0.4453125}
      - {x: 0.921875, y: -0.4140625}
      - {x: 0.9453125, y: -0.328125}
      - {x: 0.8671875, y: -0.2734375}
      - {x: 0.984375, y: -0.1328125}
      - {x: 1.046875, y: -0.03125}
      - {x: 1.0703125, y: 0.0078125}
      - {x: 1.0703125, y: 0.0859375}
      - {x: 1.03125, y: 0.1328125}
      - {x: 0.9140625, y: 0.2109375}
      - {x: 0.921875, y: 0.296875}
      - {x: 0.8984375, y: 0.375}
      - {x: 0.8828125, y: 0.5234375}
      - {x: 0.859375, y: 0.5703125}
      - {x: 0.7421875, y: 0.5703125}
      - {x: 0.7421875, y: 0.671875}
      - {x: 0.703125, y: 0.8046875}
      - {x: 0.5546875, y: 0.8828125}
      - {x: 0.484375, y: 0.875}
      - {x: 0.4296875, y: 0.8984375}
      - {x: 0.3671875, y: 0.828125}
      - {x: 0.2578125, y: 0.8203125}
      - {x: 0.125, y: 0.8515625}
      - {x: 0.0390625, y: 0.9453125}
      - {x: -0.1171875, y: 0.9453125}
      - {x: -0.140625, y: 0.84375}
      - {x: -0.25, y: 0.8671875}
      - {x: -0.453125, y: 0.921875}
      - {x: -0.5859375, y: 0.8984375}
      - {x: -0.59375, y: 0.84375}
      - {x: -0.6171875, y: 0.6875}
      - {x: -0.6796875, y: 0.6875}
      - {x: -0.765625, y: 0.6015625}
      - {x: -0.875, y: 0.5546875}
      - {x: -0.84375, y: 0.4765625}
      - {x: -0.765625, y: 0.421875}
      - {x: -0.8515625, y: 0.3671875}
      - {x: -0.9140625, y: 0.296875}
      - {x: -1, y: 0.1796875}
      - {x: -1.0078125, y: 0.1015625}
      - {x: -1.0078125, y: 0.0078125}
      - {x: -0.9921875, y: -0.0546875}
      - {x: -0.9765625, y: -0.078125}
      - {x: -0.84375, y: -0.15625}
      - {x: -0.8125, y: -0.3359375}
      - {x: -0.875, y: -0.390625}
      - {x: -0.875, y: -0.421875}
      - {x: -0.8359375, y: -0.4609375}
      - {x: -0.7421875, y: -0.453125}
      - {x: -0.703125, y: -0.5703125}
      - {x: -0.6640625, y: -0.65625}
      - {x: -0.609375, y: -0.7421875}
      - {x: -0.5625, y: -0.7578125}
      - {x: -0.5, y: -0.75}
      - {x: -0.3359375, y: -0.671875}
      - {x: -0.265625, y: -0.71875}
      - {x: -0.203125, y: -0.7265625}
      - {x: -0.0625, y: -0.765625}
      - {x: 0, y: -0.78125}
      - {x: 0.0625, y: -0.78125}
      - {x: 0.078125, y: -0.7421875}
      - {x: 0.140625, y: -0.6796875}
      - {x: 0.2578125, y: -0.734375}
